…
asianandlatinx <- left_join(asian, latinx, by = "GEOID") %>%
    rename(tract = NAME.x,
           asianvar = variable.x,
           asianval = value.x,
           latinxvar = variable.y,
           latinxval = value.y) %>%
  select(GEOID, asianvar, asianval, latinxvar, latinxval)
racetable <- left_join(totalandwhite, asianandlatinx, by = "GEOID") %>%
  mutate(percwhite = (whiteval/totalval)*100) %>%
  mutate(percasian = (asianval/totalval)*100) %>%
  mutate(perclatinx = (latinxval/totalval)*100)
racetable
```

    ## # A tibble: 244 × 14
    ##    GEOID     tract totalvar totalval whitevar whiteval                  geometry
    ##    <chr>     <chr> <chr>       <dbl> <chr>       <dbl>        <MULTIPOLYGON [°]>
    ##  1 06075035… Cens… totalpop     3888 white        1957 (((-122.5099 37.76409, -…
    ##  2 06075040… Cens… totalpop     3936 white        2354 (((-122.4648 37.78856, -…
    ##  3 06075047… Cens… totalpop     3527 white        1582 (((-122.4887 37.77611, -…
    ##  4 06075026… Cens… totalpop     3852 white         260 (((-122.4113 37.71061, -…
    ##  5 06075012… Cens… totalpop     3088 white        1566 (((-122.4154 37.78932, -…
    ##  6 06075020… Cens… totalpop     3247 white        2238 (((-122.4352 37.76273, -…
    ##  7 06075021… Cens… totalpop     2620 white        2106 (((-122.4428 37.75238, -…
    ##  8 06075026… Cens… totalpop     2902 white         818 (((-122.4318 37.72825, -…
    ##  9 06075025… Cens… totalpop     4182 white         551 (((-122.4105 37.72849, -…
    ## 10 06075032… Cens… totalpop     3979 white        1553 (((-122.4848 37.76516, -…
    ## # … with 234 more rows, and 7 more variables: asianvar <chr>, asianval <dbl>,
    ## #   latinxvar <chr>, latinxval <dbl>, percwhite <dbl>, percasian <dbl>,
    ## #   perclatinx <dbl>
…
    ## Rows: 287671 Columns: 32
    ## ── Column specification ────────────────────────────────────────────────────────
    ## Delimiter: ","
    ## chr (24): Location Id, Business Account Number, Ownership Name, DBA Name, St...
    ## dbl  (6): Supervisor District, SF Find Neighborhoods, Current Police Distric...
    ## lgl  (2): Parking Tax, Transient Occupancy Tax
    ## 
    ## ℹ Use `spec()` to retrieve the full column specification for this data.
    ## ℹ Specify the column types or set `show_col_types = FALSE` to quiet this message.

``` r
SF_businesses
```

    ## # A tibble: 287,671 × 32
    ##    `Location Id`  `Business Accou…` `Ownership Name` `DBA Name` `Street Address`
    ##    <chr>          <chr>             <chr>            <chr>      <chr>           
    ##  1 0012905-01-001 0012905           Hirsch Ephraim … Hirsch As… Pier 1a         
    ##  2 0080280-05-001 0080280           Wollborg-Michel… Wollborg-… 291 Geary St St…
    ##  3 0020258-11-999 0020258           Ncr Corp         Ncr Corpo… 30 Chestnut Ave 
    ##  4 0030032-46-001 0030032           Walgreen Co      Walgreens… 845 Market St   
    ##  5 0028703-02-001 0028703           Vericlaim Inc    Vericlaim… 500 Sansome St …
    ##  6 1280636-06-211 0334683           Ati Restoration… Ati Resto… 25000 Industria…
    ##  7 0089176-01-001 0089176           Sinbads Pier 2,… Sinbads P… Pier 02         
    ##  8 1011845-11-141 0005036           Carters Jewelry… Zwillinge… 210 Post St 412 
    ##  9 1286392-09-211 0319309           Righetti Law Fi… Righetti … 220 Halleck St …
    ## 10 1300658-03-221 0364263           Jones Rudolph D  Cafe' 1485 1485 Bay Shore …
    ## # … with 287,661 more rows, and 27 more variables: City <chr>, State <chr>,
    ## #   `Source Zipcode` <chr>, `Business Start Date` <chr>,
    ## #   `Business End Date` <chr>, `Location Start Date` <chr>,
    ## #   `Location End Date` <chr>, `Mail Address` <chr>, `Mail City` <chr>,
    ## #   `Mail Zipcode` <chr>, `Mail State` <chr>, `NAICS Code` <chr>,
    ## #   `NAICS Code Description` <chr>, `Parking Tax` <lgl>,
    ## #   `Transient Occupancy Tax` <lgl>, `LIC Code` <chr>, …

#### Table 4.2: Business in the Mission with LIC Code H in it. LIC codes with H’s are retail businesses, this was a crucial filtering step to finding food retailers.

``` r
Mission_H_Codes <- SF_businesses %>%
   filter(str_detect(`LIC Code`, "H"), `Neighborhoods - Analysis Boundaries` == "Mission") %>%
  select(`Ownership Name`, `DBA Name`, `Street Address`, `Business Start Date`, `Business End Date`, `Mail State`, `NAICS Code`, `NAICS Code Description`, `LIC Code`, `LIC Code Description`, `Neighborhoods - Analysis Boundaries`)
Mission_H_Codes %>% select(`Ownership Name`, `DBA Name`, `LIC Code`, `LIC Code Description`)
```

    ## # A tibble: 983 × 4
    ##    `Ownership Name`            `DBA Name`            `LIC Code` `LIC Code Desc…`
    ##    <chr>                       <chr>                 <chr>      <chr>           
    ##  1 Officemax Inc               Officemax No America… D32 H03 P… Multiple        
    ##  2 Reyes Dolores               Sanjalisco Restaurant H25        Restaurant 1,00…
    ##  3 La Ciudad Clu               City Club             H86 P12 P… Multiple        
    ##  4 Rtrn Investment Llc         Travelodge Central    Hhh        <NA>            
    ##  5 Pfm Enterprises             The Napper Tandy      H25        Restaurant 1,00…
    ##  6 Ngo Howard & Vuong Dzung My Duc Loi Supermarket   H07 H73 P… Multiple        
    ##  7 Senor Sisig Corp            Senor Sisig           H24 Pos01… Multiple        
    ##  8 Koutoulas Pete              Petes Bbq             H24 Wm30 … Multiple        
    ##  9 Andy's Bp Inc               Mission Gas & Shop    H31 H73 P… Multiple        
    ## 10 E B Liitt Corp              The Mission Grocery … H06 H73 P… Multiple        
    ## # … with 973 more rows
…
``` r
H_strings <- c("H01", "H02", "H03", "H04", "H05", "H06", "H07", "H08", "H09", "H10", "H11", "H12", "H13", "H14", "H16", "H19", "H80", "H81", "H83", "H88", "H89", "H92")
```

#### Table 4.3: The follow is a table that includes data on all food retailers within the Mission District.

``` r
Final_Mission_Food_Retailers <- SF_businesses %>%
  filter(`Neighborhoods - Analysis Boundaries` == "Mission") %>%
  filter(str_detect(`LIC Code`, paste(H_strings, collapse = "|")))
Final_Mission_Food_Retailers
```

    ## # A tibble: 147 × 32
    ##    `Location Id`  `Business Accou…` `Ownership Name` `DBA Name` `Street Address`
    ##    <chr>          <chr>             <chr>            <chr>      <chr>           
    ##  1 0301049-01-001 0301049           Officemax Inc    Officemax… 1750 Harrison St
    ##  2 0163658-03-001 0163658           Ngo Howard & Vu… Duc Loi S… 2200 Mission St 
    ##  3 1133354-01-171 1005129           E B Liitt Corp   The Missi… 1245 South Van …
    ##  4 0922993-01-001 0922993           Self Serve Petr… Self-Serv… 599 Van Ness Ave
    ##  5 1130151-12-161 1062467           Valencia Wholef… Valencia … 999 Valencia St 
    ##  6 1140225-03-171 1067352           Potrero Market … Potrero M… 1298 Potrero Ave
    ##  7 0308344-03-001 0308344           Lai Hung Dat     Basa Seaf… 3064 24th St    
    ##  8 1176966-01-181 1082713           Huber Gamboa, A… La Canast… 2097 Mission St 
    ##  9 1239479-11-191 1108985           Guerrero Shell … Guerrero … 400 Guerrero St 
    ## 10 0347396-01-001 0347396           Velasco Jerry F… Dona Tere… 2780 21st St    
    ## # … with 137 more rows, and 27 more variables: City <chr>, State <chr>,
    ## #   `Source Zipcode` <chr>, `Business Start Date` <chr>,
    ## #   `Business End Date` <chr>, `Location Start Date` <chr>,
    ## #   `Location End Date` <chr>, `Mail Address` <chr>, `Mail City` <chr>,
    ## #   `Mail Zipcode` <chr>, `Mail State` <chr>, `NAICS Code` <chr>,
    ## #   `NAICS Code Description` <chr>, `Parking Tax` <lgl>,
    ## #   `Transient Occupancy Tax` <lgl>, `LIC Code` <chr>, …

``` r
Clean_Final_Retail <- Final_Mission_Food_Retailers %>%
  select("Ownership Name", "DBA Name", "Street Address", "LIC Code Description")
Clean_Final_Retail
```

    ## # A tibble: 147 × 4
    ##    `Ownership Name`               `DBA Name`   `Street Address` `LIC Code Desc…`
    ##    <chr>                          <chr>        <chr>            <chr>           
    ##  1 Officemax Inc                  Officemax N… 1750 Harrison St Multiple        
    ##  2 Ngo Howard & Vuong Dzung My    Duc Loi Sup… 2200 Mission St  Multiple        
    ##  3 E B Liitt Corp                 The Mission… 1245 South Van … Multiple        
    ##  4 Self Serve Petroleum Inc       Self-Serve … 599 Van Ness Ave Multiple        
    ##  5 Valencia Wholefoods Inc        Valencia Wh… 999 Valencia St  Multiple        
    ##  6 Potrero Market And Deli        Potrero Mar… 1298 Potrero Ave Multiple        
    ##  7 Lai Hung Dat                   Basa Seafoo… 3064 24th St     Multiple        
    ##  8 Huber Gamboa, Alfredo Ramos    La Canasta … 2097 Mission St  Multiple        
    ##  9 Guerrero Shell Llc             Guerrero Sh… 400 Guerrero St  Multiple        
    ## 10 Velasco Jerry F/velasco Teresa Dona Teres … 2780 21st St     Retail Food Mar…
    ## # … with 137 more rows

``` r
Clean_Order_r <- Clean_Final_Retail[order(Clean_Final_Retail$"DBA Name"),]
Clean_Order_r
```

    ## # A tibble: 147 × 4
    ##    `Ownership Name`                 `DBA Name` `Street Address` `LIC Code Desc…`
    ##    <chr>                            <chr>      <chr>            <chr>           
    ##  1 Binaya Pokharel And Mandira Shr… 23rd & Gu… 3558 23rd St     Retail Food Mar…
    ##  2 Samra Bros Inc                   26th & Gu… 1400 Guerrero St Multiple        
    ##  3 Shehadeh Nizar A                 Abc Market 2801 Bryant St   Multiple        
    ##  4 Mosleh Hamood                    All Seaso… 401 Capp St      Multiple        
    ##  5 All Season Market                All Seaso… 401 Capp St      Multiple        
    ##  6 Cervantes Marisa                 All Star … 3350 18th St     Retail Mkts W/o…
    ##  7 Anthony's Cookies Inc            Anthony's… 1417 Valencia St Retail Bakeries…
    ##  8 Elias Carmen                     Bakery La… 3329 24th St     Retail Bakeries…
    ##  9 Lai Hung Dat                     Basa Seaf… 3064 24th St     Multiple        
    ## 10 Best Buy Stores, L.p.            Best Buy … 1717 Harrison St Retail Mkts W/o…
    ## # … with 137 more rows
…
    ## Rows: 101 Columns: 49
    ## ── Column specification ────────────────────────────────────────────────────────
    ## Delimiter: ","
    ## chr (36): Timestamp, Name of Food Retailer, Address, Date Assessed, Type of ...
    ## dbl (11): Median Price of a Dozen Eggs, Median Price of a Loaf of Bread, Mil...
    ## lgl  (1): ...46
    ## 
    ## ℹ Use `spec()` to retrieve the full column specification for this data.
    ## ℹ Specify the column types or set `show_col_types = FALSE` to quiet this message.

``` r
retail_data
```

    ## # A tibble: 101 × 49
    ##    Timestamp       `Name of Food Retai…` Address `Date Assessed` `Type of Store`
    ##    <chr>           <chr>                 <chr>   <chr>           <chr>          
    ##  1 1/27/2022 12:38 Mission Foodhall      3100 1… 1/26/2022       Specialty Food…
    ##  2 1/27/2022 12:41 Fred’s Liquors & Del… 200 Va… 1/26/2022       Grocery Store  
    ##  3 1/27/2022 12:43 E And M Market        399 Va… 1/26/2022       Convenience St…
    ##  4 1/27/2022 12:46 K & H Liquor          501 Va… 1/26/2022       Convenience St…
    ##  5 1/27/2022 12:48 Valencia Whole Foods  999 Va… 1/26/2022       Grocery Store  
    ##  6 1/27/2022 12:50 Decamere Market       1001 V… 1/26/2022       Convenience St…
    ##  7 1/27/2022 12:52 Indian Spices and Gr… 3265 2… 1/26/2022       Specialty Food…
    ##  8 1/27/2022 12:55 Valencia Farmer’s Ma… 1299 V… 1/26/2022       Grocery Store  
    ##  9 1/27/2022 12:57 Anthony’s Cookies     1417 V… 1/26/2022       Specialty Food…
    ## 10 1/27/2022 12:59 Valencia Grocery      1300 V… 1/26/2022       Convenience St…
    ## # … with 91 more rows, and 44 more variables:
    ## #   `What type of Specialty Food Store?` <chr>, `EBT Accepted?` <chr>,
    ## #   `Number of Locations (chain?)` <dbl>, `Median Price of a Dozen Eggs` <dbl>,
    ## #   `Median Price of a Loaf of Bread` <dbl>,
    ## #   `Median Price of a Gallon of Milk` <chr>, `Milk Standardized_Gallon` <dbl>,
    ## #   `Median Price of Oranges` <chr>, `Orange Standardized_lbs` <chr>,
    ## #   `Median Price of Organic Oranges` <chr>, …
